<svg xmlns="http://www.w3.org/2000/svg" width="16.75" height="16.75" viewBox="0 0 16.75 16.75">
  <path fill="#289EB5" id="Icon_material-close" data-name="Icon material-close" d="M24.25,9.187,22.563,7.5l-6.688,6.688L9.187,7.5,7.5,9.187l6.688,6.688L7.5,22.563,9.187,24.25l6.688-6.688,6.688,6.688,1.687-1.687-6.688-6.688Z" transform="translate(-7.5 -7.5)"/>
</svg>
